<?xml version="1.0" encoding="UTF-8" standalone="no"?>
<!-- Created with Inkscape (http://www.inkscape.org/) -->
<svg
   xmlns:dc="http://purl.org/dc/elements/1.1/"
   xmlns:cc="http://creativecommons.org/ns#"
   xmlns:rdf="http://www.w3.org/1999/02/22-rdf-syntax-ns#"
   xmlns:svg="http://www.w3.org/2000/svg"
   xmlns="http://www.w3.org/2000/svg"
   xmlns:sodipodi="http://sodipodi.sourceforge.net/DTD/sodipodi-0.dtd"
   xmlns:inkscape="http://www.inkscape.org/namespaces/inkscape"
   width="600"
   height="700"
   id="svg2"
   sodipodi:version="0.32"
   inkscape:version="0.46"
   version="1.0"
   sodipodi:docname="img12.svg"
   inkscape:output_extension="org.inkscape.output.svg.inkscape"
   inkscape:export-filename="/home/koloss/Dropbox/projects/FED/de/images/img12.png"
   inkscape:export-xdpi="180"
   inkscape:export-ydpi="180">
  <defs
     id="defs4">
    <inkscape:perspective
       sodipodi:type="inkscape:persp3d"
       inkscape:vp_x="0 : 526.18109 : 1"
       inkscape:vp_y="0 : 1000 : 0"
       inkscape:vp_z="744.09448 : 526.18109 : 1"
       inkscape:persp3d-origin="372.04724 : 350.78739 : 1"
       id="perspective10" />
  </defs>
  <sodipodi:namedview
     id="base"
     pagecolor="#ffffff"
     bordercolor="#666666"
     borderopacity="1.0"
     gridtolerance="10000"
     guidetolerance="10"
     objecttolerance="10"
     inkscape:pageopacity="1"
     inkscape:pageshadow="2"
     inkscape:zoom="1"
     inkscape:cx="297.60547"
     inkscape:cy="357.28077"
     inkscape:document-units="px"
     inkscape:current-layer="layer1"
     showgrid="false"
     showborder="true"
     inkscape:showpageshadow="false"
     inkscape:window-width="1222"
     inkscape:window-height="1101"
     inkscape:window-x="2224"
     inkscape:window-y="55"
     height="744.09px" />
  <metadata
     id="metadata7">
    <rdf:RDF>
      <cc:Work
         rdf:about="">
        <dc:format>image/svg+xml</dc:format>
        <dc:type
           rdf:resource="http://purl.org/dc/dcmitype/StillImage" />
      </cc:Work>
    </rdf:RDF>
  </metadata>
  <g
     inkscape:label="Layer 1"
     inkscape:groupmode="layer"
     id="layer1">
    <path
       style="fill:none;fill-rule:evenodd;stroke:#000000;stroke-width:4.01666021;stroke-linecap:butt;stroke-linejoin:miter;stroke-miterlimit:4;stroke-dasharray:none;stroke-opacity:1"
       d="M 0.28187639,2.5303548 L 600.22835,2.5303548"
       id="path2383" />
    <path
       style="fill:none;fill-rule:evenodd;stroke:#000000;stroke-width:4.01666021;stroke-linecap:butt;stroke-linejoin:miter;stroke-miterlimit:4;stroke-dasharray:none;stroke-opacity:1"
       d="M 0.4017635,468 L 600.34824,468"
       id="path3169" />
    <path
       style="fill:none;fill-rule:evenodd;stroke:#000000;stroke-width:4.01666021;stroke-linecap:butt;stroke-linejoin:miter;stroke-miterlimit:4;stroke-dasharray:none;stroke-opacity:1"
       d="M 0.2767635,236.5 L 600.22324,236.5"
       id="path3173" />
    <path
       style="fill:none;fill-rule:evenodd;stroke:#000000;stroke-width:4.01666021;stroke-linecap:butt;stroke-linejoin:miter;stroke-miterlimit:4;stroke-dasharray:none;stroke-opacity:1"
       d="M 0.2767625,186.5 L 600.22324,186.5"
       id="path3175" />
    <path
       style="fill:none;fill-rule:evenodd;stroke:#000000;stroke-width:4.01666021;stroke-linecap:butt;stroke-linejoin:miter;stroke-miterlimit:4;stroke-dasharray:none;stroke-opacity:1"
       d="M 0.276762,113.5 L 600.22324,113.5"
       id="path3177" />
    <path
       style="fill:none;fill-rule:evenodd;stroke:#000000;stroke-width:4.5133338;stroke-linecap:butt;stroke-linejoin:miter;stroke-miterlimit:4;stroke-dasharray:none;stroke-opacity:1"
       d="M 300.3125,185.10682 L 300.3125,465.83331"
       id="path3179" />
    <text
       xml:space="preserve"
       style="font-size:24px;font-style:normal;font-variant:normal;font-weight:bold;font-stretch:normal;fill:#000000;fill-opacity:1;stroke:none;stroke-width:1px;stroke-linecap:butt;stroke-linejoin:miter;stroke-opacity:1;font-family:Bitstream Vera Serif;-inkscape-font-specification:Bitstream Vera Serif Bold"
       x="236.17383"
       y="38"
       id="text3189"><tspan
         sodipodi:role="line"
         x="236.17383"
         y="38"
         id="tspan2410">Abbild 11</tspan></text>
    <text
       xml:space="preserve"
       style="font-size:24px;font-style:normal;font-variant:normal;font-weight:bold;font-stretch:normal;text-align:center;text-anchor:middle;fill:#000000;fill-opacity:1;stroke:none;stroke-width:1px;stroke-linecap:butt;stroke-linejoin:miter;stroke-opacity:1;font-family:Bitstream Vera Serif;-inkscape-font-specification:Bitstream Vera Serif Bold"
       x="299.4375"
       y="71.5"
       id="text3197"><tspan
         sodipodi:role="line"
         x="299.4375"
         y="71.5"
         id="tspan2442">FED kauft $1 Milliarde Staatsanleihen:</tspan><tspan
         sodipodi:role="line"
         x="299.4375"
         y="101.5"
         id="tspan2446">Ergebnis nach ein paar Wochen</tspan></text>
    <text
       xml:space="preserve"
       style="font-size:24px;font-style:normal;font-variant:normal;font-weight:normal;font-stretch:normal;text-align:center;text-anchor:middle;fill:#000000;fill-opacity:1;stroke:none;stroke-width:1px;stroke-linecap:butt;stroke-linejoin:miter;stroke-opacity:1;font-family:Bitstream Vera Serif;-inkscape-font-specification:Bitstream Vera Serif"
       x="299.67773"
       y="173.5"
       id="text3201"><tspan
         sodipodi:role="line"
         id="tspan3203"
         x="299.67773"
         y="173.5">Komerzielle Banken</tspan></text>
    <text
       xml:space="preserve"
       style="font-size:24px;font-style:normal;font-variant:normal;font-weight:normal;font-stretch:normal;fill:#000000;fill-opacity:1;stroke:none;stroke-width:1px;stroke-linecap:butt;stroke-linejoin:miter;stroke-opacity:1;font-family:Bitstream Vera Serif;-inkscape-font-specification:Bitstream Vera Serif"
       x="95.5"
       y="220.23438"
       id="text3205"><tspan
         sodipodi:role="line"
         id="tspan3207"
         x="95.5"
         y="220.23438">Aktiva</tspan></text>
    <text
       xml:space="preserve"
       style="font-size:24px;font-style:normal;font-variant:normal;font-weight:normal;font-stretch:normal;fill:#000000;fill-opacity:1;stroke:none;stroke-width:1px;stroke-linecap:butt;stroke-linejoin:miter;stroke-opacity:1;font-family:Bitstream Vera Serif;-inkscape-font-specification:Bitstream Vera Serif"
       x="411"
       y="219.66016"
       id="text3209"><tspan
         sodipodi:role="line"
         id="tspan3211"
         x="411"
         y="219.66016">Passiva</tspan></text>
    <text
       xml:space="preserve"
       style="font-size:24px;font-style:normal;font-variant:normal;font-weight:normal;font-stretch:normal;text-align:end;text-anchor:end;fill:#000000;fill-opacity:1;stroke:none;stroke-width:1px;stroke-linecap:butt;stroke-linejoin:miter;stroke-opacity:1;font-family:Bitstream Vera Serif;-inkscape-font-specification:Bitstream Vera Serif"
       x="576.27734"
       y="278.32031"
       id="text3221"><tspan
         sodipodi:role="line"
         x="576.27734"
         y="278.32031"
         id="tspan2432">Einlagen:</tspan><tspan
         sodipodi:role="line"
         x="576.27734"
         y="308.32031"
         id="tspan2430">+ $10 Milliarden</tspan></text>
    <path
       style="fill:none;fill-rule:evenodd;stroke:#000000;stroke-width:4.01666021;stroke-linecap:butt;stroke-linejoin:miter;stroke-miterlimit:4;stroke-dasharray:none;stroke-opacity:1"
       d="M 0.02676245,697.99167 L 599.97324,697.99167"
       id="path2411" />
    <path
       style="fill:none;fill-rule:evenodd;stroke:#000000;stroke-width:4.01666021;stroke-linecap:butt;stroke-linejoin:miter;stroke-miterlimit:4;stroke-dasharray:none;stroke-opacity:1"
       d="M 0.02676245,593.86303 L 599.97324,593.86303"
       id="path2413" />
    <path
       style="fill:none;fill-rule:evenodd;stroke:#000000;stroke-width:4.01666021;stroke-linecap:butt;stroke-linejoin:miter;stroke-miterlimit:4;stroke-dasharray:none;stroke-opacity:1"
       d="M 0.02675995,543.86303 L 599.97324,543.86303"
       id="path2415" />
    <path
       style="fill:none;fill-rule:evenodd;stroke:#000000;stroke-width:3.34381032;stroke-linecap:butt;stroke-linejoin:miter;stroke-miterlimit:4;stroke-dasharray:none;stroke-opacity:1"
       d="M 300,544.28855 L 300,698.37764"
       id="path2417" />
    <text
       xml:space="preserve"
       style="font-size:24px;font-style:normal;font-variant:normal;font-weight:normal;font-stretch:normal;text-align:center;text-anchor:middle;fill:#000000;fill-opacity:1;stroke:none;stroke-width:1px;stroke-linecap:butt;stroke-linejoin:miter;stroke-opacity:1;font-family:Bitstream Vera Serif;-inkscape-font-specification:Bitstream Vera Serif"
       x="299.93555"
       y="530.86304"
       id="text2419"><tspan
         sodipodi:role="line"
         id="tspan2421"
         x="299.93555"
         y="530.86304">Die Federal Reserve Bank</tspan></text>
    <text
       xml:space="preserve"
       style="font-size:24px;font-style:normal;font-variant:normal;font-weight:normal;font-stretch:normal;fill:#000000;fill-opacity:1;stroke:none;stroke-width:1px;stroke-linecap:butt;stroke-linejoin:miter;stroke-opacity:1;font-family:Bitstream Vera Serif;-inkscape-font-specification:Bitstream Vera Serif"
       x="95.5"
       y="577.59741"
       id="text2423"><tspan
         sodipodi:role="line"
         id="tspan2425"
         x="95.5"
         y="577.59741">Aktiva</tspan></text>
    <text
       xml:space="preserve"
       style="font-size:24px;font-style:normal;font-variant:normal;font-weight:normal;font-stretch:normal;fill:#000000;fill-opacity:1;stroke:none;stroke-width:1px;stroke-linecap:butt;stroke-linejoin:miter;stroke-opacity:1;font-family:Bitstream Vera Serif;-inkscape-font-specification:Bitstream Vera Serif"
       x="411"
       y="577.02319"
       id="text2427"><tspan
         sodipodi:role="line"
         id="tspan2429"
         x="411"
         y="577.02319">Passiva</tspan></text>
    <text
       xml:space="preserve"
       style="font-size:24px;font-style:normal;font-variant:normal;font-weight:normal;font-stretch:normal;text-align:end;text-anchor:end;fill:#000000;fill-opacity:1;stroke:none;stroke-width:1px;stroke-linecap:butt;stroke-linejoin:miter;stroke-opacity:1;font-family:Bitstream Vera Serif;-inkscape-font-specification:Bitstream Vera Serif"
       x="576.95703"
       y="642.52734"
       id="text2452"><tspan
         sodipodi:role="line"
         x="576.95703"
         y="642.52734"
         id="tspan2470">Einlagen der Banken:</tspan><tspan
         sodipodi:role="line"
         x="576.95703"
         y="672.52734"
         id="tspan2440">+ $1 Milliarde</tspan></text>
    <text
       xml:space="preserve"
       style="font-size:24px;font-style:normal;font-variant:normal;font-weight:normal;font-stretch:normal;text-align:end;text-anchor:end;fill:#000000;fill-opacity:1;stroke:none;stroke-width:1px;stroke-linecap:butt;stroke-linejoin:miter;stroke-opacity:1;font-family:Bitstream Vera Serif;-inkscape-font-specification:Bitstream Vera Serif"
       x="272.41016"
       y="642.52734"
       id="text2476"><tspan
         sodipodi:role="line"
         x="272.41016"
         y="642.52734"
         id="tspan2478">U.S. Staatsanleihen:</tspan><tspan
         sodipodi:role="line"
         x="272.41016"
         y="672.52734"
         id="tspan2434"> + $1 Milliarde</tspan></text>
    <text
       xml:space="preserve"
       style="font-size:24px;font-style:normal;font-variant:normal;font-weight:normal;font-stretch:normal;text-align:end;text-anchor:end;fill:#000000;fill-opacity:1;stroke:none;stroke-width:1px;stroke-linecap:butt;stroke-linejoin:miter;stroke-opacity:1;font-family:Bitstream Vera Serif;-inkscape-font-specification:Bitstream Vera Serif"
       x="272"
       y="382.32031"
       id="text2420"><tspan
         sodipodi:role="line"
         x="272"
         y="382.32031"
         id="tspan2426">Einlagen bei der FED</tspan><tspan
         sodipodi:role="line"
         x="272"
         y="412.32031"
         id="tspan2422">(Reserven):</tspan><tspan
         sodipodi:role="line"
         x="272"
         y="442.32031"
         id="tspan2424">+ $1 Milliarde</tspan></text>
    <text
       xml:space="preserve"
       style="font-size:24px;font-style:normal;font-variant:normal;font-weight:normal;font-stretch:normal;text-align:end;text-anchor:end;fill:#000000;fill-opacity:1;stroke:none;stroke-width:1px;stroke-linecap:butt;stroke-linejoin:miter;stroke-opacity:1;font-family:Bitstream Vera Serif;-inkscape-font-specification:Bitstream Vera Serif"
       x="272"
       y="278.32031"
       id="text2429"><tspan
         sodipodi:role="line"
         x="272"
         y="278.32031"
         id="tspan2431">Schuldscheine und</tspan><tspan
         sodipodi:role="line"
         x="272"
         y="308.32031"
         id="tspan2435">Wertpapiere:</tspan><tspan
         sodipodi:role="line"
         x="272"
         y="338.32031"
         id="tspan2433">+ $9 Milliarden</tspan></text>
  </g>
</svg>
